{
	"info": {
		"_postman_id": "9b8ff0ba-2a52-4d99-873d-9601dfe3bc14",
		"name": "CapstoneProject2",
		"schema": "https://schema.getpostman.com/json/collection/v2.1.0/collection.json",
		"_exporter_id": "27182326"
	},
	"item": [
		{
			"name": "mvp",
			"item": [
				{
					"name": "user registration",
					"request": {
						"method": "POST",
						"header": [],
						"body": {
							"mode": "raw",
							"raw": "{\r\n    \"email\": \"marixbasa@mail.com\",\r\n    \"password\": \"marixbasa\"\r\n}",
							"options": {
								"raw": {
									"language": "json"
								}
							}
						},
						"url": {
							"raw": "{{local_url}}/users/register/{{marixbasa_userid}}",
							"host": [
								"{{local_url}}"
							],
							"path": [
								"users",
								"register",
								"{{marixbasa_userid}}"
							]
						}
					},
					"response": []
				},
				{
					"name": "user login",
					"request": {
						"auth": {
							"type": "bearer",
							"bearer": [
								{
									"key": "token",
									"value": "{{marixbasa_token}}",
									"type": "string"
								}
							]
						},
						"method": "POST",
						"header": [],
						"body": {
							"mode": "raw",
							"raw": "{\r\n    \"email\": \"marixbasa@mail.com\",\r\n    \"password\": \"marixbasa\"\r\n}",
							"options": {
								"raw": {
									"language": "json"
								}
							}
						},
						"url": {
							"raw": "{{local_url}}/users/login",
							"host": [
								"{{local_url}}"
							],
							"path": [
								"users",
								"login"
							]
						}
					},
					"response": []
				},
				{
					"name": "create product (A)",
					"request": {
						"auth": {
							"type": "bearer",
							"bearer": [
								{
									"key": "token",
									"value": "{{marixadmin}}",
									"type": "string"
								}
							]
						},
						"method": "POST",
						"header": [],
						"body": {
							"mode": "raw",
							"raw": "{\r\n\t\"name\": \"Final Fantasy VII Remake Integrade\",\r\n\t\"description\": \"INAL FANTASY VII REMAKE is a bold reimagining of the original FINAL FANTASY VII, originally released in 1997, developed under the guidance of the original key developers.\",\r\n\t\"price\": 3490\r\n}",
							"options": {
								"raw": {
									"language": "json"
								}
							}
						},
						"url": {
							"raw": "{{local_url}}/products/createproduct",
							"host": [
								"{{local_url}}"
							],
							"path": [
								"products",
								"createproduct"
							]
						}
					},
					"response": []
				},
				{
					"name": "retrieve all product (A)",
					"protocolProfileBehavior": {
						"disableBodyPruning": true
					},
					"request": {
						"auth": {
							"type": "bearer",
							"bearer": [
								{
									"key": "token",
									"value": "{{marixadmin}}",
									"type": "string"
								}
							]
						},
						"method": "GET",
						"header": [],
						"body": {
							"mode": "raw",
							"raw": "",
							"options": {
								"raw": {
									"language": "json"
								}
							}
						},
						"url": {
							"raw": "{{local_url}}/products/allproduct/",
							"host": [
								"{{local_url}}"
							],
							"path": [
								"products",
								"allproduct",
								""
							]
						}
					},
					"response": []
				},
				{
					"name": "retrieve all active product",
					"request": {
						"auth": {
							"type": "bearer",
							"bearer": [
								{
									"key": "token",
									"value": "{{marixadmin}}",
									"type": "string"
								}
							]
						},
						"method": "GET",
						"header": [],
						"url": {
							"raw": "{{local_url}}/products/activeproduct",
							"host": [
								"{{local_url}}"
							],
							"path": [
								"products",
								"activeproduct"
							]
						}
					},
					"response": []
				},
				{
					"name": "retrieve all inactive product",
					"protocolProfileBehavior": {
						"disableBodyPruning": true
					},
					"request": {
						"auth": {
							"type": "bearer",
							"bearer": [
								{
									"key": "token",
									"value": "{{marixadmin}}",
									"type": "string"
								}
							]
						},
						"method": "GET",
						"header": [],
						"body": {
							"mode": "raw",
							"raw": ""
						},
						"url": {
							"raw": "{{local_url}}/products/inactiveproduct",
							"host": [
								"{{local_url}}"
							],
							"path": [
								"products",
								"inactiveproduct"
							]
						}
					},
					"response": []
				},
				{
					"name": "update product information (A)",
					"request": {
						"auth": {
							"type": "bearer",
							"bearer": [
								{
									"key": "token",
									"value": "{{marixadmin}}",
									"type": "string"
								}
							]
						},
						"method": "PUT",
						"header": [],
						"body": {
							"mode": "raw",
							"raw": "{\r\n\t\"name\": \"Final Fantasy VII Remake Integrade\",\r\n\t\"description\": \"FINAL FANTASY VII REMAKE is a bold reimagining of the original FINAL FANTASY VII, originally released in 1997, developed under the guidance of the original key developers.\",\r\n\t\"price\": 3500\r\n\r\n}",
							"options": {
								"raw": {
									"language": "json"
								}
							}
						},
						"url": {
							"raw": "{{local_url}}/products/update/{{product_ff-vii-remake-integrade}}",
							"host": [
								"{{local_url}}"
							],
							"path": [
								"products",
								"update",
								"{{product_ff-vii-remake-integrade}}"
							]
						}
					},
					"response": []
				},
				{
					"name": "archive product (A)",
					"request": {
						"auth": {
							"type": "bearer",
							"bearer": [
								{
									"key": "token",
									"value": "{{marixadmin}}",
									"type": "string"
								}
							]
						},
						"method": "PATCH",
						"header": [],
						"url": {
							"raw": "{{local_url}}/products/archive/{{product_ff-vii-remake-integrade}}",
							"host": [
								"{{local_url}}"
							],
							"path": [
								"products",
								"archive",
								"{{product_ff-vii-remake-integrade}}"
							]
						}
					},
					"response": []
				},
				{
					"name": "activate product (A)",
					"request": {
						"auth": {
							"type": "bearer",
							"bearer": [
								{
									"key": "token",
									"value": "{{marixadmin}}",
									"type": "string"
								}
							]
						},
						"method": "PATCH",
						"header": [],
						"url": {
							"raw": "{{local_url}}/products/activate/{{product_ff-vii-remake-integrade}}",
							"host": [
								"{{local_url}}"
							],
							"path": [
								"products",
								"activate",
								"{{product_ff-vii-remake-integrade}}"
							]
						}
					},
					"response": []
				},
				{
					"name": "retrieve single product [url version]",
					"protocolProfileBehavior": {
						"disableBodyPruning": true
					},
					"request": {
						"auth": {
							"type": "bearer",
							"bearer": [
								{
									"key": "token",
									"value": "{{marixbasa_token}}",
									"type": "string"
								}
							]
						},
						"method": "GET",
						"header": [],
						"body": {
							"mode": "raw",
							"raw": "",
							"options": {
								"raw": {
									"language": "json"
								}
							}
						},
						"url": {
							"raw": "{{local_url}}/products/singleproduct/{{product_ff-vii-remake-integrade}}",
							"host": [
								"{{local_url}}"
							],
							"path": [
								"products",
								"singleproduct",
								"{{product_ff-vii-remake-integrade}}"
							]
						}
					},
					"response": []
				},
				{
					"name": "retrieve user details [auth version]",
					"request": {
						"auth": {
							"type": "bearer",
							"bearer": [
								{
									"key": "token",
									"value": "{{marixbasa_token}}",
									"type": "string"
								}
							]
						},
						"method": "GET",
						"header": [],
						"url": {
							"raw": "{{local_url}}/users/details",
							"host": [
								"{{local_url}}"
							],
							"path": [
								"users",
								"details"
							]
						}
					},
					"response": []
				},
				{
					"name": "{{{render}}} retrieve user details",
					"protocolProfileBehavior": {
						"disableBodyPruning": true
					},
					"request": {
						"auth": {
							"type": "bearer",
							"bearer": [
								{
									"key": "token",
									"value": "{{marixuser1_token}}",
									"type": "string"
								}
							]
						},
						"method": "GET",
						"header": [],
						"body": {
							"mode": "formdata",
							"formdata": []
						},
						"url": {
							"raw": "{{render_url}}/users/details",
							"host": [
								"{{render_url}}"
							],
							"path": [
								"users",
								"details"
							]
						}
					},
					"response": []
				},
				{
					"name": "non-admin create order [auth & url version]",
					"request": {
						"auth": {
							"type": "bearer",
							"bearer": [
								{
									"key": "token",
									"value": "{{marixbasa_token}}",
									"type": "string"
								}
							]
						},
						"method": "PATCH",
						"header": [],
						"body": {
							"mode": "raw",
							"raw": "{\r\n    \"quantity\": 1\r\n}",
							"options": {
								"raw": {
									"language": "json"
								}
							}
						},
						"url": {
							"raw": "{{local_url}}/orders/createorder/{{product_kingdom_hearts_III}}",
							"host": [
								"{{local_url}}"
							],
							"path": [
								"orders",
								"createorder",
								"{{product_kingdom_hearts_III}}"
							]
						}
					},
					"response": []
				}
			]
		},
		{
			"name": "stretch goal",
			"item": [
				{
					"name": "retrieve all orders (A)",
					"protocolProfileBehavior": {
						"disableBodyPruning": true
					},
					"request": {
						"auth": {
							"type": "bearer",
							"bearer": [
								{
									"key": "token",
									"value": "{{marixadmin}}",
									"type": "string"
								}
							]
						},
						"method": "GET",
						"header": [],
						"body": {
							"mode": "raw",
							"raw": "",
							"options": {
								"raw": {
									"language": "json"
								}
							}
						},
						"url": {
							"raw": "{{local_url}}/orders/allorder",
							"host": [
								"{{local_url}}"
							],
							"path": [
								"orders",
								"allorder"
							]
						}
					},
					"response": []
				},
				{
					"name": "retrieve user orders",
					"protocolProfileBehavior": {
						"disableBodyPruning": true
					},
					"request": {
						"auth": {
							"type": "bearer",
							"bearer": [
								{
									"key": "token",
									"value": "{{marixuser1_token}}",
									"type": "string"
								}
							]
						},
						"method": "GET",
						"header": [],
						"body": {
							"mode": "formdata",
							"formdata": []
						},
						"url": {
							"raw": "{{local_url}}/orders/userorder",
							"host": [
								"{{local_url}}"
							],
							"path": [
								"orders",
								"userorder"
							]
						}
					},
					"response": []
				},
				{
					"name": "set user as admin (A) [url version]",
					"request": {
						"auth": {
							"type": "bearer",
							"bearer": [
								{
									"key": "token",
									"value": "{{marixuser1_token}}",
									"type": "string"
								}
							]
						},
						"method": "PUT",
						"header": [],
						"body": {
							"mode": "raw",
							"raw": "",
							"options": {
								"raw": {
									"language": "json"
								}
							}
						},
						"url": {
							"raw": "{{local_url}}/users/updateadminstatus/{{marixbasa_userid}}",
							"host": [
								"{{local_url}}"
							],
							"path": [
								"users",
								"updateadminstatus",
								"{{marixbasa_userid}}"
							]
						}
					},
					"response": []
				}
			]
		},
		{
			"name": "other versions",
			"item": [
				{
					"name": "*retrieve single product [body version]",
					"protocolProfileBehavior": {
						"disableBodyPruning": true
					},
					"request": {
						"method": "GET",
						"header": [],
						"body": {
							"mode": "raw",
							"raw": "{\r\n    \"productId\": \"64b36feb1a712d3a83d4ba6e\"\r\n}",
							"options": {
								"raw": {
									"language": "json"
								}
							}
						},
						"url": {
							"raw": "{{local_url}}/products/singleproduct",
							"host": [
								"{{local_url}}"
							],
							"path": [
								"products",
								"singleproduct"
							]
						}
					},
					"response": []
				},
				{
					"name": "*set user as admin (A) [body version]",
					"request": {
						"auth": {
							"type": "bearer",
							"bearer": [
								{
									"key": "token",
									"value": "{{marixuser2_token}}",
									"type": "string"
								}
							]
						},
						"method": "PUT",
						"header": [],
						"body": {
							"mode": "raw",
							"raw": "{\r\n    \"userId\": \"64b3755d5b293bd8be873b83\"\r\n}",
							"options": {
								"raw": {
									"language": "json"
								}
							}
						},
						"url": {
							"raw": "{{local_url}}/users/updateadminstatus",
							"host": [
								"{{local_url}}"
							],
							"path": [
								"users",
								"updateadminstatus"
							]
						}
					},
					"response": []
				},
				{
					"name": "*retrieve user details [url version]",
					"request": {
						"method": "GET",
						"header": [],
						"url": {
							"raw": "{{local_url}}/users/{{marixuser_userid}}",
							"host": [
								"{{local_url}}"
							],
							"path": [
								"users",
								"{{marixuser_userid}}"
							]
						}
					},
					"response": []
				},
				{
					"name": "*non-admin create order [auth & body version]",
					"request": {
						"auth": {
							"type": "bearer",
							"bearer": [
								{
									"key": "token",
									"value": "{{marixuser}}",
									"type": "string"
								}
							]
						},
						"method": "PATCH",
						"header": [],
						"body": {
							"mode": "raw",
							"raw": "{\r\n    \"productId\": \"64b36b965d1f7a0c97c64dc4\",\r\n    \"quantity\": 1\r\n}",
							"options": {
								"raw": {
									"language": "json"
								}
							}
						},
						"url": {
							"raw": "{{local_url}}/orders/createorder",
							"host": [
								"{{local_url}}"
							],
							"path": [
								"orders",
								"createorder"
							]
						}
					},
					"response": []
				}
			]
		}
	],
	"variable": [
		{
			"key": "marixadmin",
			"value": "eyJhbGciOiJIUzI1NiIsInR5cCI6IkpXVCJ9.eyJpZCI6IjY0YjM2NmFiYzk2NDEyYjgwODc5MmVjNSIsImVtYWlsIjoibWFyaXhhZG1pbkBtYWlsLmNvbSIsImlzQWRtaW4iOnRydWUsImlhdCI6MTY4OTQ3OTQ3OH0.6DYBPjpSrR2f7YS5ke7J970z6Ns2pkPo2Mrv6uDXEgA"
		},
		{
			"key": "marixuser",
			"value": "eyJhbGciOiJIUzI1NiIsInR5cCI6IkpXVCJ9.eyJpZCI6IjY0YjM2NzZhMTljOWNiNTEwMmI2NTBlMiIsImVtYWlsIjoibWFyaXh1c2VyQG1haWwuY29tIiwiaXNBZG1pbiI6ZmFsc2UsImlhdCI6MTY4OTQ4MDE4OX0.RuOoUFSmSjGtIM7dyy_InTOmCnwCOA_DjSLnssiHQkc"
		},
		{
			"key": "product_animal-crossing-new-horizons",
			"value": "64b37f95c3618dc7fa6607e4"
		},
		{
			"key": "local_url",
			"value": "http://localhost:4001"
		},
		{
			"key": "product_final-fantasy-vii-remake",
			"value": "64b36feb1a712d3a83d4ba6e"
		},
		{
			"key": "marixadmin_userid",
			"value": "64b366abc96412b808792ec5"
		},
		{
			"key": "marixuser_userid",
			"value": "64b3676a19c9cb5102b650e2"
		},
		{
			"key": "marixuser1_userid",
			"value": "64b3755d5b293bd8be873b83"
		},
		{
			"key": "marixuser2_userid",
			"value": "64b38da3abc336966db5cf5e"
		},
		{
			"key": "product_legend-of-zelda-tears-of-the-kingdom",
			"value": "64b36a9bb68df6f5f88fd382"
		},
		{
			"key": "product_tales-of-vesperia-definitive-version",
			"value": "64b36b965d1f7a0c97c64dc4"
		},
		{
			"key": "product_final-fantasy-ix",
			"value": "64b36d1e1a712d3a83d4ba68"
		},
		{
			"key": "product_ff-vii-&-ff-viii-remastered-twin-pack",
			"value": "64b36ea71a712d3a83d4ba6a"
		},
		{
			"key": "product_crisis-core-final-fantasy-vii-reunion",
			"value": "64b36f751a712d3a83d4ba6c"
		},
		{
			"key": "render_url",
			"value": "https://capstone-2-basa.onrender.com"
		},
		{
			"key": "marixuser1_token",
			"value": "eyJhbGciOiJIUzI1NiIsInR5cCI6IkpXVCJ9.eyJpZCI6IjY0YjM3NTVkNWIyOTNiZDhiZTg3M2I4MyIsImVtYWlsIjoibWFyaXh1c2VyMUBtYWlsLmNvbSIsImlzQWRtaW4iOnRydWUsImlhdCI6MTY4OTQ5ODgzOX0.Yu6bUwosjbgIJg_bHUwIg120H9NmAwvS8T5A96kBkYs"
		},
		{
			"key": "marixuser2_token",
			"value": "eyJhbGciOiJIUzI1NiIsInR5cCI6IkpXVCJ9.eyJpZCI6IjY0YjM4ZGEzYWJjMzM2OTY2ZGI1Y2Y1ZSIsImVtYWlsIjoibWFyaXh1c2VyMkBtYWlsLmNvbSIsImlzQWRtaW4iOmZhbHNlLCJpYXQiOjE2ODk1MTExODB9.Hd1MQP7iX4r9StwAPG8KFKCVf86K5XH11Zpn24ivd-I"
		},
		{
			"key": "product_ff_I-VI-bundle",
			"value": "64b4aee47355636cc8336f4f"
		},
		{
			"key": "marixbasa_userid",
			"value": "64b4bc3700e1d8acd90a08eb"
		},
		{
			"key": "marixbasa_token",
			"value": "eyJhbGciOiJIUzI1NiIsInR5cCI6IkpXVCJ9.eyJpZCI6IjY0YjRiYzM3MDBlMWQ4YWNkOTBhMDhlYiIsImVtYWlsIjoibWFyaXhiYXNhQG1haWwuY29tIiwiaXNBZG1pbiI6ZmFsc2UsImlhdCI6MTY4OTU2NjM5MH0.DHLnYwA5tE5SWxjg9xSEl6jOQS9yg3oyMpTgmGgfyhM"
		},
		{
			"key": "product_ff-vii-remake-integrade",
			"value": "64b4bd9e00e1d8acd90a08ef"
		},
		{
			"key": "product_kingdom_hearts_III",
			"value": "64b4b12479d70fa9de23490e"
		}
	]
}